<?xml version="1.0" encoding="utf-8"?>
<!-- Generator: Adobe Illustrator 23.0.4, SVG Export Plug-In . SVG Version: 6.00 Build 0)  -->
<svg version="1.1" id="Logo" xmlns="http://www.w3.org/2000/svg" xmlns:xlink="http://www.w3.org/1999/xlink" x="0px" y="0px"
	 viewBox="0 0 257.6 30.9" style="enable-background:new 0 0 257.6 30.9;" xml:space="preserve">
<g>
	<polygon fill="currentColor" class="st0" points="0,6 7.6,6 7.6,30.2 14.1,30.2 14.1,6 21.5,6 21.5,0.7 0,0.7 	"/>
	<polygon fill="currentColor" class="st0" points="190.4,0.7 168.9,0.7 168.9,6 176.4,6 176.4,30.2 183,30.2 183,6 190.4,6 	"/>
	<polygon fill="currentColor" class="st0" points="38.7,12.1 30.6,12.1 30.6,0.6 24,0.6 24,30.2 30.6,30.2 30.6,17.4 38.8,17.4 38.8,30.2 45.4,30.2 
		45.4,0.6 38.7,0.6 	"/>
	<polygon fill="currentColor" class="st0" points="146.6,0.6 139.4,16 139.4,0.6 132.8,0.6 125.7,16 125.6,0.6 119,0.6 119,30.2 125.7,30.2 132.8,14.8 
		132.8,30.2 139.5,30.2 153.2,0.6 	"/>
	<polygon fill="currentColor" class="st0" points="97.1,30.2 115.7,30.2 115.7,24.9 103.7,24.9 103.7,17.4 112.9,17.4 112.9,12.1 103.6,12.1 103.6,6 
		115.7,6 115.7,0.7 97.1,0.7 	"/>
	<polygon fill="currentColor" class="st0" points="49.4,30.2 68,30.2 68,24.9 56,24.9 56,17.4 65.2,17.4 65.2,12.1 55.9,12.1 55.9,6 68,6 68,0.7 
		49.4,0.7 	"/>
	<path fill="currentColor" class="st0" d="M87.2,11.7c0,1.1,0,1.4,0.1,3.4l0.1,3h-0.2c-0.1-0.2-0.6-1.3-0.7-1.5c-0.3-0.6-0.7-1.4-1.1-2L78.1,0.6h-6v29.6
		h5.8V16.4c0-0.8-0.1-4.5-0.2-5.4h0.2c1.7,3.6,1.7,3.7,2.4,4.9l7.5,14.3h5.2V0.6h-5.8V11.7z"/>
	<path fill="currentColor" class="st0" d="M194.4,0.7l-8.4,29.6h6.4l1.5-6.1h9.1l1.5,6.1h6.4l-8.6-29.6H194.4z M195.1,19.5L198.3,6h0.2l3.3,13.5H195.1z"
		/>
	<path fill="currentColor" class="st0" d="M218.5,6.2c0.7-0.6,1.7-0.9,2.5-0.9c3.2,0,3.3,3.2,3.4,4.7h6.6c-0.1-2.4-0.4-6-3.1-8.1
		c-2.1-1.6-4.8-1.9-6.5-1.9c-6.9,0-10.4,3.8-10.4,10.6v9c0,6.1,1.5,7.7,2.7,8.8c1.8,1.7,4.2,2.5,7.5,2.5c1.3,0,4.3-0.3,6.4-1.9
		c2.5-1.9,2.9-4,3.1-5.2c0.2-1.3,0.2-1.5,0.3-3.6h-6.6c0,3.2-0.8,5.4-3.4,5.4c-3.5,0-3.5-3.1-3.5-4.7V9.5
		C217.4,8.7,217.5,7.2,218.5,6.2z"/>
	<rect fill="currentColor" x="233.1" y="0.6" class="st0" width="6.6" height="29.6"/>
	<polygon fill="currentColor" class="st0" points="247.1,14.4 256.1,0.6 249,0.6 249,0.6 240,14.9 249.8,30.2 257.6,30.2 	"/>
	<path fill="currentColor" class="st0" d="M166.4,13l-4.2-1.4c-2-0.6-4.2-0.8-4.2-2.9c0-0.3,0.1-2.5,3.4-2.7h5.2V0.7c0,0-4.1,0-4.5,0
		c-6.2,0-9.3,3.4-9.3,8.3c0,5.8,3.4,7.1,7.9,8.8c4.9,1.7,6.3,2.2,6.3,4.4c0,2.7-2.8,3.3-4.4,3.3c-2.8,0-4.9-1.5-5.9-4l-4.5,3.3
		c2.4,4.8,5.1,6,10.7,6c1.7,0,4.3-0.4,6-1.5c4.1-2.5,4.1-6.5,4.1-7.8c0-2.8-1.2-4.7-1.6-5.2C170.2,14.8,168.2,13.6,166.4,13z"/>
</g>
</svg>
